﻿#########################################################################
# Australia - 1933
#########################################################################
1933.1.1 = {
	capital = 674
	oob = "AST_1933"
	set_convoys = 100
	add_to_variable = { money = 200 }
	#######################
	# Research
	#######################
	set_technology = {
	basic_train = 1

		Small_Arms_1900 = 1
		Small_Arms_1916 = 1
		Infantry_Kit_1914 = 1
		Infantry_Kit_1918 = 1

		Heavy_Weapons_1905 = 1
		Heavy_Weapons_1916 = 1
		### Support Company Tech
		tech_support = 1
		tech_engineers = 1
		tech_recon = 1
		### Arty Tech
		Artillery_1910 = 1
		Anti_Aircraft_Gun_1914 = 1
		Artillery_Range_Finding_and_Surveying_Tools = 1
		Infantry_Support_Gun_1914 = 1
		Artillery_1916 = 1
		### Armor Tech
		Motorized_1916 = 1
		Armored_Car_1911 = 1
		Armored_Car_1916 = 1
		Armored_Car_1926 = 1
		Heavy_Tank_1916 = 1
		Heavy_Tank_1917 = 1
		Light_Tank_1917 = 1
		Light_Tank_1919 = 1
		### Light Air Tech
		Unarmed_Recon_1910 = 1
		Fighter_1914 = 1
		Fighter_1916 = 1
		Fighter_1918 = 1
		Fighter_1924 = 1
		Fighter_1933 = 1
		Fighter_Bomber_1916 = 1
		Fighter_Bomber_1918 = 1
		Fighter_Bomber_1924 = 1
		cv_Fighter_1933 = 1
		### Heavy Air Tech
		Tactical_Bomber_1914 = 1
		Tactical_Bomber_1916 = 1
		Tactical_Bomber_1918 = 1
		Tactical_Bomber_1925 = 1
		Tactical_Bomber_1933 = 1
		Strategic_Bomber_1916 = 1
		Strategic_Bomber_1933 = 1
		### Naval Tech
		DD_1885 = 1
		DD_1900 = 1
		DD_1912 = 1
		DD_1916 = 1
		DD_1922 = 1
		CL_1885 = 1
		CL_1900 = 1
		CL_1912 = 1
		CL_1922 = 1
		CL_1933 = 1
		CA_1885 = 1
		CA_1895 = 1
		CA_1906 = 1
		CA_1922 = 1
		CA_1933 = 1
		BC_1906 = 1
		BC_1912 = 1
		BC_1916 = 1
		CV_1912 = 1
		### Land Doctrine Tech
		Twentieth_Century_Warfare = 1
		Leading_by_Order = 1
		Strongpoint = 1
		Mass_Charge = 1
		Static_Defence = 1
		Counterattack = 1
		Defence_In_Depth = 1
		Separate_Arms_Force = 1
		Combined_Arms_Effort = 1
		Specialized_Branch_Tactical_Experience = 1
		Beyond_Trench_Warfare = 1
		### Naval Doctrine
		fleet_in_being = 1
		### Industry
		Industrial_Management = 1
		Factory_Electrification = 1
		Facilities_Design = 1
		Moving_Assembly_Line = 1
		Skilled_Workforce = 1
		Concentrated_Industry = 1
		Motorized_Plowing = 1
		Farm_Tractors = 1
		Scientific_Agricultural_Processes = 1
		Mechanized_Agriculture = 1
		Basic_Construction_Machines = 1
		Novel_Drills = 1
		Contemporary_Construction_Standards = 1
		Advanced_Drilling_Method = 1
		Construction_Site_Management = 1
		### Engineering
		computing_1 = 1
		computing_2 = 1
		computing_3 = 1
		decryption_encryption_1 = 1
		### Support Companies
		tech_engineers = 1
		tech_assault_weapons_1 = 1
		tech_assault_weapons_2 = 1
		tech_assault_weapons_3 = 1
		tech_entrenchment_1 = 1
		tech_entrenchment_2 = 1
		tech_entrenchment_3 = 1
		tech_amphibious_1 = 1
		tech_amphibious_2 = 1
		tech_amphibious_3 = 1
		tech_recon = 1
		tech_recon2 = 1
		tech_recon3 = 1
		tech_recon4 = 1
		tech_military_police = 1
		tech_military_police2 = 1
		tech_military_police3 = 1
		tech_military_police4 = 1
		tech_signal_company = 1
		tech_signal_company2 = 1
		tech_field_hospital = 1
		tech_field_hospital_psychology_1 = 1
		tech_field_hospital_psychology_2 = 1
		tech_field_hospital_psychology_3 = 1
		tech_field_hospital_health_1 = 1
		tech_field_hospital_health_2 = 1
		tech_field_hospital_health_3 = 1
		tech_logistics_company = 1
		tech_logistics_company2 = 1
		tech_logistics_company3 = 1
		tech_logistics_company4 = 1
		tech_maintenance_company = 1
		tech_maintenance_company2 = 1
		tech_maintenance_company3 = 1
		tech_maintenance_company4 = 1
	}
	#######################
	# Politics
	#######################
	set_politics = {
		ruling_party = democratic
		last_election = "1931.12.19"
		election_frequency = 36
		elections_allowed = yes
	}
	set_popularities = {
		fascist = 0
		authoritarian = 2
		democratic = 97
		socialist = 1
		communist = 0
	}
	add_ideas = {
		# Cabinet
		AST_D_Isaac_Isaacs
		AST_FM_George_F_Pearce
		AST_AM_Robert_A_Parkhill
		AST_MoS_Thomas_Paterson
		AST_HoI_Alexander_McLachlan
		mixed_economy
		full_civil_liberties
		# Military Staff
		AST_CoStaff_Joseph_A_Lyons
		AST_CoArmy_John_Lavarack
		AST_CoNavy_Ragnar_M_Colvin
		AST_CoAir_Richard_Williams
	}
	#######################
	# Diplomacy
	#######################
	add_to_tech_sharing_group = commonwealth_research
	#######################
	# Leaders
	#######################
	# Fascism
	create_country_leader = {
		name = "Eric Campbell"
		desc = ""
		picture = GFX_P_F_Eric_Campbell
		expire = "1965.1.1"
		ideology = fascism
		traits = {
			POSITION_Prime_Minister
			SUBIDEOLOGY_Fascism
			L_Barking_Buffoon
		}
	}
	# Paternal Autocracy
	create_country_leader = {
		name = "William Birdwood"
		desc = ""
		picture = GFX_P_A_William_Birdwood
		expire = "1965.1.1"
		ideology = authoritarian_democracy
		traits = {
			POSITION_Governor_General
			SUBIDEOLOGY_Authoritarian_Democracy
			L_Autocratic_Charmer
		}
	}
	# Democracy
	create_country_leader = {
		name = "Joseph A. Lyons"
		desc = ""
		picture = GFX_P_D_Joseph_Lyons
		expire = "1965.1.1"
		ideology = social_conservatism
		traits = {
			POSITION_Prime_Minister
			SUBIDEOLOGY_Social_Conservatism
			L_Flamboyant_Tough_Guy
		}
	}
	# Left-Wing Radicalism
	create_country_leader = {
		name = "Ernie Judd"
		desc = ""
		picture = GFX_P_S_Ernie_Jude
		expire = "1965.1.1"
		ideology = syndicalism
		traits = {
			POSITION_Prime_Minister
			SUBIDEOLOGY_Syndicalism
			L_Ambitious_Union_Boss
		}
	}
	# Marxism-Leninism
	create_country_leader = {
		name = "Lance Sharkey"
		desc = ""
		picture = GFX_P_C_Lance_Sharkey
		expire = "1965.1.1"
		ideology = marxism_leninism
		traits = {
			POSITION_General_Secretary
			SUBIDEOLOGY_Marxism_Leninism
			L_Barking_Buffoon
		}
	}
	#######################
	# Generals
	#######################
	create_corps_commander = {
		name = "Leslie Morshead"
		id = 17000
		GFX = GFX_M_Leslie_Morshead
		traits = { }
		skill = 4
		attack_skill = 4
		defense_skill = 2
		planning_skill = 5
		logistics_skill = 2
	}
	create_corps_commander = {
		name = "Thomas Blamey"
		id = 17001
		GFX = GFX_M_Thomas_Blamey
		traits = { }
		skill = 4
		attack_skill = 4
		defense_skill = 3
		planning_skill = 3
		logistics_skill = 3
	}
	create_corps_commander = {
		name = "Henry Wynter"
		id = 17002
		GFX = GFX_M_Henry_Wynter
		traits = { }
		skill = 4
		attack_skill = 3
		defense_skill = 4
		planning_skill = 3
		logistics_skill = 3
	}
	create_corps_commander = {
		name = "Alan Vasey"
		id = 17003
		GFX = GFX_M_Alan_Vasey
		traits = { hill_fighter }
		skill = 3
		attack_skill = 2
		defense_skill = 4
		planning_skill = 3
		logistics_skill = 1
	}
	create_corps_commander = {
		name = "Horace Robertson"
		id = 17004
		GFX = GFX_M_Horace_Robertson
		traits = { desert_fox }
		skill = 3
		attack_skill = 3
		defense_skill = 1
		planning_skill = 3
		logistics_skill = 3
	}
	create_corps_commander = {
		name = "John Northcott"
		id = 17005
		GFX = GFX_M_John_Northcott
		traits = { armor_officer}
		skill = 1
		attack_skill = 1
		defense_skill = 1
		planning_skill = 1
		logistics_skill = 1
	}
	#######################
	# Admirals
	#######################
	create_navy_leader = {
		name = "Harold Farncomb"
		GFX = GFX_M_Harold_Farncomb
		traits = { aviation_enthusiast naval_lineage }
		skill = 4
		attack_skill = 3
		defense_skill = 3
		maneuvering_skill = 3
		coordination_skill = 4
	}
	create_navy_leader = {
		name = "Victor Crutchley"
		GFX = GFX_M_Victor_Crutchley
		traits = { bold }
		skill = 3
		attack_skill = 3
		defense_skill = 2
		maneuvering_skill = 3
		coordination_skill = 2
	}
}
#########################################################################
# Australia - 1936
#########################################################################
1936.1.1 = {
	capital = 674
	oob = "AST_1936"
	set_convoys = 202
	#######################
	# Research
	#######################
	set_technology = {
		Small_Arms_1916 = 1
		Small_Arms_1935 = 1
		tech_support = 1
		tech_engineers = 1
		tech_recon = 1
		Artillery_1910 = 1
		Fighter_1933 = 1
		Fighter_1936 = 1
		cv_Fighter_1933 = 1
		Torpedo_bomber_1936 = 1
		Strategic_Bomber_1933 = 1
		Naval_Bomber_1936 = 1
		Tactical_Bomber_1933 = 1
		Tactical_Bomber_1936 = 1
		Attacker_1936 = 1
		#Armour Tech
		Heavy_Tank_1916 = 1
		Heavy_Tank_1917 = 1
		# Naval stuff
		DD_1885 = 1
		DD_1900 = 1
		DD_1912 = 1
		DD_1916 = 1
		DD_1922 = 1
		DD_1933 = 1
		CL_1885 = 1
		CL_1900 = 1
		CL_1912 = 1
		CL_1922 = 1
		CL_1933 = 1
		CA_1885 = 1
		CA_1895 = 1
		CA_1906 = 1
		CA_1922 = 1
		CA_1933 = 1
		BC_1906 = 1
		BC_1912 = 1
		BC_1916 = 1
		CV_1912 = 1
		#
		Trench_Warfare = 1
		fleet_in_being = 1
	}
	#######################
	# Politics
	#######################
	set_politics = {
		ruling_party = democratic
		last_election = "1934.9.15"
		election_frequency = 36
		elections_allowed = yes
	}
	set_popularities = {
		fascist = 0
		authoritarian = 2
		democratic = 97
		socialist = 1
		communist = 0
	}
	add_ideas = {
		# Cabinet
		AST_FM_George_F_Pearce
		AST_AM_Robert_A_Parkhill
		AST_MoS_Thomas_Paterson
		AST_HoI_Alexander_McLachlan
		mixed_economy
		full_civil_liberties
		# Military Staff
		AST_CoStaff_Joseph_A_Lyons
		AST_CoArmy_John_Lavarack
		AST_CoNavy_Ragnar_M_Colvin
		AST_CoAir_Richard_Williams
	}
}
#########################################################################
# Australia - 1939
#########################################################################
1939.9.1 = {
	#######################
	# Leaders
	#######################
	# Democracy
	create_country_leader = {
		name = "Robert G. Menzies"
		desc = ""
		picture = GFX_P_D_Robert_Menzies
		expire = "1965.1.1"
		ideology = social_conservatism
		traits = { 
			POSITION_Prime_Minister 
			SUBIDEOLOGY_Social_Conservatism 
			L_Backroom_Backstabber 
		}
	}
}
#########################################################################
# Australia - 1941
#########################################################################
1941.6.22 = {
	#######################
	# Leaders
	#######################
	# Democracy
	create_country_leader = {
		name = "John J. Curtin"
		desc = "John_Curtin_desc"
		picture = GFX_P_D_John_Curtin
		expire = "1965.1.1"
		ideology = social_democracy
		traits = { 
			POSITION_Prime_Minister 
			SUBIDEOLOGY_Social_Democracy 
			L_Silent_Workhorse 
		}
	}
}
#########################################################################
# Australia - 1946
#########################################################################
1946.1.1 = {
	#######################
	# Leaders
	#######################
	# Democracy
	create_country_leader = {
		name = "Ben Chifley"
		desc = "Ben_Chifley_desc"
		picture = GFX_P_D_Ben_Chifley
		expire = "1965.1.1"
		ideology = social_democracy
		traits = { 
			POSITION_Prime_Minister 
			SUBIDEOLOGY_Social_Democracy 
			L_Political_Protege 
		}
	}
}