﻿############################################
# Bulgaria - 1933
############################################
1933.1.1 = {
	capital = 48
	set_convoys = 5
	oob = "BUL_1933"
	add_manpower = 10000
	add_to_variable = { money = 120 }
	#######################
	# Research
	#######################
	set_technology = {
	basic_train = 1
		### Infantry Tech
		Small_Arms_1900 = 1
		Small_Arms_1916 = 1
		Infantry_Kit_1914 = 1
		Infantry_Kit_1918 = 1

		Heavy_Weapons_1905 = 1
		Heavy_Weapons_1916 = 1
		### Artillery Tech
		Artillery_1910 = 1
		Anti_Aircraft_Gun_1914 = 1
		Artillery_Range_Finding_and_Surveying_Tools = 1
		Infantry_Support_Gun_1914 = 1
		### Support Company Tech
		tech_support = 1
		tech_engineers = 1
		### Air
		Fighter_1914 = 1
		Fighter_1916 = 1
		Fighter_1918 = 1
		Fighter_1924 = 1
		Fighter_Bomber_1916 = 1
		Fighter_Bomber_1918 = 1
		Tactical_Bomber_1914 = 1
		Tactical_Bomber_1916 = 1
		Tactical_Bomber_1918 = 1
		Tactical_Bomber_1925 = 1
		Strategic_Bomber_1916 = 1
		Naval_Bomber_1918 = 1
		Naval_Bomber_1925 = 1
		# Armour Tech
		Motorized_1916 = 1
		Light_Tank_1917 = 1
		Light_Tank_1919 = 1
		Light_Tank_1926 = 1
		Armored_Car_1911 = 1
		Armored_Car_1916 = 1
		# Naval Stuff
		DD_1885 = 1
		# Industry
		Industrial_Management = 1
		Factory_Electrification = 1
		Facilities_Design = 1
		Moving_Assembly_Line = 1
		Mass_Production = 1
		Basic_Construction_Machines = 1
		Novel_Drills = 1
		Contemporary_Construction_Standards = 1
		Advanced_Drilling_Method = 1
		Construction_Site_Management = 1
		Motorized_Plowing = 1
		Farm_Tractors = 1
		Scientific_Agricultural_Processes = 1
		# Land Doctrine
		Twentieth_Century_Warfare = 1
		Leading_by_Task = 1
		Strongpoint = 1
		Mass_Charge = 1
		Static_Defence = 1
		Counterattack = 1
		Schwerpunkt = 1
		Separate_Arms_Force = 1
		Combined_Arms_Effort = 1
		Cross_Branch_Tactical_Experience = 1
		Beyond_Trench_Warfare = 1
		### Engineering
		computing_1 = 1
		computing_2 = 1
		computing_3 = 1
		decryption_encryption_1 = 1
		### Support Companies
		tech_engineers = 1
		tech_assault_weapons_1 = 1
		tech_assault_weapons_2 = 1
		tech_assault_weapons_3 = 1
		tech_entrenchment_1 = 1
		tech_entrenchment_2 = 1
		tech_entrenchment_3 = 1
		tech_amphibious_1 = 1
		tech_amphibious_2 = 1
		tech_amphibious_3 = 1
		tech_recon = 1
		tech_recon2 = 1
		tech_recon3 = 1
		tech_recon4 = 1
		tech_military_police = 1
		tech_military_police2 = 1
		tech_military_police3 = 1
		tech_military_police4 = 1
		tech_signal_company = 1
		tech_signal_company2 = 1
		tech_field_hospital = 1
		tech_field_hospital_psychology_1 = 1
		tech_field_hospital_psychology_2 = 1
		tech_field_hospital_psychology_3 = 1
		tech_field_hospital_health_1 = 1
		tech_field_hospital_health_2 = 1
		tech_field_hospital_health_3 = 1
		tech_logistics_company = 1
		tech_logistics_company2 = 1
		tech_logistics_company3 = 1
		tech_logistics_company4 = 1
		tech_maintenance_company = 1
		tech_maintenance_company2 = 1
		tech_maintenance_company3 = 1
		tech_maintenance_company4 = 1
	}
	#######################
	# Politics
	#######################
	set_politics = {
		ruling_party = democratic
		last_election = "1931.6.21"
		election_frequency = 48
		elections_allowed = no
	}
	set_popularities = {
		fascist = 0
		authoritarian = 35
		democratic = 50
		socialist = 0
		communist = 15
	}
	add_ideas = {
		BUL_Recovering_from_the_Great_Depression
		BUL_Treaty_of_Neuilly_sur_Seine
		BUL_IMRO_Terror
		BUL_Zveno_Threat
		# Laws & Policies
		one_year_service
		agrarian_economy
		neutrality
		legalistic_restrictions
		# Cabinet
		BUL_D_Nikola_Mushanov
		BUL_MoS_Alexander_Girginov
		BUL_FM_Georgi_Kioseivanov
		BUL_AM_Stefan_Stefanov
		BUL_HoI_Dimitar_Peshev
		# Military Staff
		BUL_CoStaff_Hristo_Lukov
		BUL_CoArmy_Todor_Georgiev
		BUL_CoNavy_Sava_Ivanov
		BUL_CoAir_Vasil_Boydev
	}
	reverse_add_opinion_modifier = {
		target = YUG
		modifier = BUL_IMRO_Terror
	}
	reverse_add_opinion_modifier = {
		target = GRE
		modifier = BUL_IMRO_Terror
	}
	#######################
	# Leaders
	#######################
	# Fascism
	create_country_leader = {
		name = "Hristo Lukov"
		desc = ""
		picture = GFX_P_F_Hristo_Lukov
		expire = "1965.1.1"
		ideology = fascism
		traits = { POSITION_Leader SUBIDEOLOGY_Fascism L_Old_General }
	}
	# Authoritarianism
	create_country_leader = {
		name = "Boris III"
		desc = ""
		picture = GFX_P_A_Boris_III
		expire = "1965.1.1"
		ideology = monarchism
		traits = { POSITION_Tsar SUBIDEOLOGY_Monarchism L_Autocratic_Charmer }
	}
	# Democracy
	create_country_leader = {
		name = "Boris III"
		desc = ""
		picture = GFX_P_A_Boris_III
		expire = "1965.1.1"
		ideology = social_conservatism
		traits = { POSITION_Tsar SUBIDEOLOGY_Monarchism L_Autocratic_Charmer }
	}
	# Socialism
	create_country_leader = {
		name = "Mihail Gerdzhikov"
		desc = ""
		picture = GFX_P_S_Mihail_Gerdzhikov
		expire = "1965.1.1"
		ideology = anarcho_communism
		traits = { POSITION_Leader SUBIDEOLOGY_Anarcho_Communism L_Revolutionary_Leader }
	}
	# Communism
	create_country_leader = {
		name = "Georgi Dimitrov"
		desc = ""
		picture = GFX_P_C_Georgi_Dimitrov
		expire = "1965.1.1"
		ideology = stalinism
		traits = { POSITION_General_Secretary SUBIDEOLOGY_Stalinism L_Ruthless_Powermonger }
	}
	#######################
	# Generals
	#######################
	create_corps_commander = {
		name = "Damyan Velchev"
	    id = 44000
		GFX = GFX_M_Damyan_Velchev
		traits = { armor_officer }
		skill = 3
		attack_skill = 2
		defense_skill = 3
		planning_skill = 2
		logistics_skill = 3
	}
	create_corps_commander = {
		name = "Konstantin Lukash"
	    id = 44001
		GFX = GFX_M_Konstantin_Lukash
		traits = {  }
		skill = 3
		attack_skill = 2
		defense_skill = 3
		planning_skill = 2
		logistics_skill = 3
	}
	create_corps_commander = {
		name = "Nikola Zhekov"
	    id = 44002
		GFX = GFX_M_Nikola_Zhekov
		traits = {  }
		skill = 3
		attack_skill = 2
		defense_skill = 3
		planning_skill = 2
		logistics_skill = 3
	}
	create_corps_commander = {
		name = "Todor Georgiev"
	    id = 44003
		GFX = GFX_M_Todor_Georgiev
		traits = {  }
		skill = 3
		attack_skill = 2
		defense_skill = 3
		planning_skill = 2
		logistics_skill = 3
	}
	create_corps_commander = {
		name = "Vladimir Zaimov"
	    id = 44004
		GFX = GFX_M_Vladimir_Zaimov
		traits = {  }
		skill = 3
		attack_skill = 2
		defense_skill = 3
		planning_skill = 2
		logistics_skill = 3
	}
	create_corps_commander = {
		name = "Asen Nikolov"
	    id = 44005
		GFX = GFX_M_Asen_Nikolov
		traits = {
			harsh_leader
			trickster
			trait_engineer
		}
		skill = 3
		attack_skill = 3
		defense_skill = 3
		planning_skill = 1
		logistics_skill = 3
	}
	create_corps_commander = {
		name = "Konstantin Ivan Bekyar"
	    id = 44006
		GFX = GFX_M_Konstantin_Ivan_Bekyarov
		traits = {
			career_officer
			trickster
			urban_assault_specialist
		}
		skill = 2
		attack_skill = 3
		defense_skill = 1
		planning_skill = 3
		logistics_skill = 3
	}
	create_field_marshal = {
		name = "Georgi Nikolov Popov"
	    id = 44007
		GFX = GFX_M_Georgi_Nikolov_Popov
		traits = { defensive_doctrine }
		skill = 4
		attack_skill = 2
		defense_skill = 4
		planning_skill = 3
		logistics_skill = 4
	}
}
#########################################################################
# Bulgaria - 1936
#########################################################################
1936.1.1 = {
	oob = "BUL_1936"
	#######################
	# Research
	#######################
	set_technology = {
		Small_Arms_1935 = 0
		Motorized_1916 = 0
	}
	#######################
	# Politics
	#######################
	set_politics = {
		ruling_party = authoritarian
		last_election = "1931.6.21"
		election_frequency = 48
		elections_allowed = no
	}
	set_popularities = {
		fascist = 0
		authoritarian = 50
		democratic = 35
		socialist = 0
		communist = 15
	}
	add_ideas = {
		BUL_Recovering_from_the_Great_Depression
		BUL_Treaty_of_Neuilly_sur_Seine
		# Laws & Policies
		one_year_service
		agrarian_economy
		neutrality
		legalistic_restrictions
		# Cabinet
		BUL_D_Georgi_Kyoseivanov
		BUL_FM_Georgi_Kioseivanov
		BUL_AM_Kiril_Gounev
		BUL_HoI_Dimitar_Peshev
		# Military Staff
		BUL_CoStaff_Hristo_Lukov
		BUL_CoArmy_Todor_Georgiev
		BUL_CoNavy_Sava_Ivanov
		BUL_CoAir_Vasil_Boydev
	}
}
############################################
# Bulgaria - 1946
############################################
1946.1.1 = {
	set_cosmetic_tag = BUL_SOV
	set_politics = {
		ruling_party = communist
		last_election = "1935.9.15"
		election_frequency = 36
		elections_allowed = no
	}
	set_popularities = {
		fascist = 0
		authoritarian = 0
		democratic = 0
		socialist = 0
		communist = 100
	}
}
