characters={
	YUG_Aleksandar_I = {
		name=YUG_Aleksandar_I
		portraits={
			army={
				small="GFX_idea_Aleksandar_I"
			}
		}
		advisor={
			slot=Head_of_Government
			idea_token=YUG_Aleksandar_I_HoG
			removal_cost = -1
			allowed={
				tag=YUG
			}
			traits={
				POSITION_King
				SUBIDEOLOGY_Monarchism
				
				L_Old_Lawyer
			}
		}
	}
	YUG_Petar_II = {
		name=YUG_Petar_II
		portraits={
			army={
				small="GFX_idea_Petar_II"
			}
		}
		advisor={
			slot=Head_of_Government
			idea_token=YUG_Petar_II_HoG
			removal_cost = -1
			allowed={
				tag=YUG
			}
			traits={
				POSITION_King
				
				L_Naive_Optimist
			}
		}
	}
	YUG_Ivan_Ribar = {
		name=YUG_Ivan_Ribar
		portraits={
			civilian = {
				large = GFX_P_C_Ivan_Ribar
			}
		}
		advisor={
			slot=Head_of_Government
			idea_token= YUG_Ivan_Ribar_HoG
			removal_cost = -1
			allowed={
				tag=YUG
			}
			visible={
				date > 1943.01.01
				C_Minister_Allowed = yes
				NOT = { has_country_flag = Ivan_Ribar_unavailable }
			}
			traits={
				POSITION_President
				
				L_Silent_Workhorse
			}
		}
	}
	YUG_Slobodan_Jovanovic = {
		name=YUG_Slobodan_Jovanovic
		portraits={
			army={
				small="GFX_idea_Slobodan_Jovanovic"
			}
		}
		advisor={
			slot=Foreign_Minister
			idea_token=YUG_Slobodan_Jovanovic_FM
			allowed={
				tag=YUG
			}
			traits={
				
				FM_Ideological_Crusader
			}
		}
		advisor={
			slot=Minister_of_Security
			idea_token=YUG_Slobodan_Jovanovic_MoS
			allowed={
				tag=YUG
			}
			traits={
				
				MoS_Silent_Lawyer
			}
		}
	}
	YUG_Ivan_Subasic = {
		name=YUG_Ivan_Subasic
		portraits={
			army={
				small="GFX_idea_Ivan_Subasic"
			}
		}
		advisor={
			slot=Foreign_Minister
			idea_token=YUG_Ivan_Subasic_FM
			allowed={
				tag=YUG
			}
			traits={
				
				FM_Respectable_Compromiser
			}
		}
	}
	YUG_Milan_Grol = {
		name=YUG_Milan_Grol
		portraits={
			civilian={
				large="GFX_P_D_Milan_Grol"
			}
			army={
				small="GFX_idea_Milan_Grol"
			}
		}
		country_leader={
			expire = "1965.1.1"
			ideology = social_liberalism
			traits = {
				POSITION_Prime_Minister
				SUBIDEOLOGY_Social_Liberalism
				L_Flamboyant_Tough_Guy
			}
		}
		advisor={
			slot=Foreign_Minister
			idea_token=YUG_Milan_Grol_FM
			allowed={
				tag=YUG
			}
			traits={
				
				FM_Respectable_Compromiser
			}
		}
	}
	YUG_Bozidar_Puric = {
		name=YUG_Bozidar_Puric
		portraits={
			army={
				small="GFX_idea_Bozidar_Puric"
			}
		}
		advisor={
			slot=Foreign_Minister
			idea_token=YUG_Bozidar_Puric_FM
			allowed={
				tag=YUG
			}
			traits={
				
				FM_Apologetic_Clerk
			}
		}
	}
	YUG_Momcilo_Nincic = {
		name=YUG_Momcilo_Nincic
		portraits={
			army={
				small="GFX_idea_Momcilo_Nincic"
			}
		}
		advisor={
			slot=Foreign_Minister
			idea_token=YUG_Momcilo_Nincic_FM
			allowed={
				tag=YUG
			}
			traits={
				
				FM_Ideological_Crusader
			}
		}
	}
	YUG_Bogoljub_Jevtic = {
		name=YUG_Bogoljub_Jevtic
		portraits={
			army={
				small="GFX_idea_Bogoljub_Jevtic"
			}
		}
		advisor={
			slot=Foreign_Minister
			idea_token=YUG_Bogoljub_Jevtic_FM
			allowed={
				tag=YUG
			}
			traits={
				
				FM_Great_Compromiser
			}
		}
	}
	YUG_Aleksandar_C_Markovic = {
		name=YUG_Aleksandar_C_Markovic
		portraits={
			army={
				small="GFX_idea_Aleksandar_C_Markovic"
			}
		}
		advisor={
			slot=Foreign_Minister
			idea_token=YUG_Aleksandar_C_Markovic_FM
			allowed={
				tag=YUG
			}
			traits={
				
				FM_Apologetic_Clerk
			}
		}
	}
	YUG_Milan_Stojadinovic = {
		name=YUG_Milan_Stojadinovic
		portraits={
			army={
				small="GFX_idea_Milan_Stojadinovic"
			}
		}
		advisor={
			slot=Foreign_Minister
			idea_token=YUG_Milan_Stojadinovic_FM
			allowed={
				tag=YUG
			}
			traits={
				
				FM_The_Cloak_N_Dagger_Schemer
			}
		}
		advisor={
			slot=Armaments_Minister
			idea_token=YUG_Milan_Stojadinovic_AM
			allowed={
				tag=YUG
			}
			traits={
				
				AM_Balanced_Budget_Economy
			}
		}
	}
	YUG_Vladeta_Milicevic = {
		name=YUG_Vladeta_Milicevic
		portraits={
			army={
				small="GFX_idea_Vladeta_Milicevic"
			}
		}
		advisor={
			slot=Minister_of_Security
			idea_token=YUG_Vladeta_Milicevic_MoS
			allowed={
				tag=YUG
			}
			traits={
				
				MoS_Secret_Police_Chief
			}
		}
	}
	YUG_Sava_Kosanovic = {
		name=YUG_Sava_Kosanovic
		portraits={
			army={
				small="GFX_idea_Sava_Kosanovic"
			}
		}
		advisor={
			slot=Minister_of_Security
			idea_token=YUG_Sava_Kosanovic_MoS
			allowed={
				tag=YUG
			}
			traits={
				
				MoS_Ruthless_Organizer
			}
		}
	}
	YUG_Srdan_Budisavljevic = {
		name=YUG_Srdan_Budisavljevic
		portraits={
			army={
				small="GFX_idea_Srdan_Budisavljevic"
			}
		}
		advisor={
			slot=Minister_of_Security
			idea_token=YUG_Srdan_Budisavljevic_MoS
			allowed={
				tag=YUG
			}
			traits={
				
				MoS_Compassionate_Gentleman
			}
		}
	}
	YUG_Anton_Korosec = {
		name=YUG_Anton_Korosec
		portraits={
			army={
				small="GFX_idea_Anton_Korosec"
			}
		}
		advisor={
			slot=Minister_of_Security
			idea_token=YUG_Anton_Korosec_MoS
			allowed={
				tag=YUG
			}
			traits={
				
				MoS_Compassionate_Gentleman
			}
		}
	}
	YUG_Dusan_Simovic = {
		name=YUG_Dusan_Simovic
		portraits={
			army={
				small="GFX_idea_Dusan_Simovic"
			}
		}
		advisor={
			slot=Minister_of_Security
			idea_token=YUG_Dusan_Simovic_MoS
			allowed={
				tag=YUG
			}
			traits={
				
				MoS_Ruthless_Organizer
			}
		}
		advisor={
			slot=Chief_of_Staff
			idea_token=YUG_Dusan_Simovic_CoStaff
			allowed={
				tag=YUG
			}
			traits={
				
				CoArmy_Static_Defence_Doctrine
			}
		}
	}
	YUG_Vlada_Zecevic = {
		name=YUG_Vlada_Zecevic
		portraits={
			army={
				small="GFX_idea_Vlada_Zecevic"
			}
		}
		advisor={
			slot=Minister_of_Security
			idea_token=YUG_Vlada_Zecevic_MoS
			allowed={
				tag=YUG
			}
			traits={
				
				MoS_Turncoat
			}
		}
	}
	YUG_Aleksandar_Rankovic = {
		name=YUG_Aleksandar_Rankovic
		portraits={
			army={
				small="GFX_idea_Aleksandar_Rankovic"
			}
		}
		advisor={
			slot=Minister_of_Security
			idea_token=YUG_Aleksandar_Rankovic_MoS
			allowed={
				tag=YUG
			}
			traits={
				
				MoS_Secret_Police_Chief
			}
		}
	}
	YUG_Velimir_Popovic = {
		name=YUG_Velimir_Popovic
		portraits={
			army={
				small="GFX_idea_Velimir_Popovic"
			}
		}
		advisor={
			slot=Minister_of_Security
			idea_token=YUG_Velimir_Popovic_MoS
			allowed={
				tag=YUG
			}
			traits={
				
				MoS_Back_Stabber
			}
		}
	}
	YUG_Zivojin_Lazic = {
		name=YUG_Zivojin_Lazic
		portraits={
			army={
				small="GFX_idea_Zivojin_Lazic"
			}
		}
		advisor={
			slot=Minister_of_Security
			idea_token=YUG_Zivojin_Lazic_MoS
			allowed={
				tag=YUG
			}
			traits={
				
				MoS_Prince_Of_Terror
			}
		}
	}
	YUG_Dragisa_Cvetkovic = {
		name=YUG_Dragisa_Cvetkovic
		portraits={
			army={
				small="GFX_idea_Dragisa_Cvetkovic"
			}
		}
		advisor={
			slot=Minister_of_Security
			idea_token=YUG_Dragisa_Cvetkovic_MoS
			allowed={
				tag=YUG
			}
			traits={
				
				MoS_Silent_Lawyer
			}
		}
	}
	YUG_Milan_Acimovic = {
		name=YUG_Milan_Acimovic
		portraits={
			army={
				small="GFX_idea_Milan_Acimovic"
			}
		}
		advisor={
			slot=Minister_of_Security
			idea_token=YUG_Milan_Acimovic_MoS
			allowed={
				tag=YUG
			}
			traits={
				
				MoS_Crime_Fighter
			}
		}
	}
	YUG_Sreten_Zujovic = {
		name=YUG_Sreten_Zujovic
		portraits={
			army={
				small="GFX_idea_Sreten_Zujovic"
			}
		}
		advisor={
			slot=Armaments_Minister
			idea_token=YUG_Sreten_Zujovic_AM
			allowed={
				tag=YUG
			}
			traits={
				
				AM_Infantry_Proponent
			}
		}
	}
	YUG_Juraj_Sutej = {
		name=YUG_Juraj_Sutej
		portraits={
			army={
				small="GFX_idea_Juraj_Sutej"
			}
		}
		advisor={
			slot=Armaments_Minister
			idea_token=YUG_Juraj_Sutej_AM
			allowed={
				tag=YUG
			}
			traits={
				
				AM_Military_Entrepreneur
			}
		}
	}
	YUG_Milorad_Dordevic = {
		name=YUG_Milorad_Dordevic
		portraits={
			army={
				small="GFX_idea_Milorad_Dordevic"
			}
		}
		advisor={
			slot=Armaments_Minister
			idea_token=YUG_Milorad_Dordevic_AM
			allowed={
				tag=YUG
			}
			traits={
				
				MoS_Reformer
			}
		}
	}
	YUG_Dusan_Letica = {
		name=YUG_Dusan_Letica
		portraits={
			army={
				small="GFX_idea_Dusan_Letica"
			}
		}
		advisor={
			slot=Armaments_Minister
			idea_token=YUG_Dusan_Letica_AM
			allowed={
				tag=YUG
			}
			traits={
				
				AM_Infantry_Proponent
			}
		}
	}
	YUG_Vojin_Duricic = {
		name=YUG_Vojin_Duricic
		portraits={
			army={
				small="GFX_idea_Vojin_Duricic"
			}
		}
		advisor={
			slot=Armaments_Minister
			idea_token=YUG_Vojin_Duricic_AM
			allowed={
				tag=YUG
			}
			traits={
				
				AM_Corrupt_Kleptocrat
			}
		}
	}
	YUG_Arso_Jovanovic = {
		name=YUG_Arso_Jovanovic
		portraits={
			army={
				small="GFX_idea_Arso_Jovanovic"
			}
		}
		advisor={
			slot=Chief_of_Staff
			idea_token=YUG_Arso_Jovanovic_CoStaff
			allowed={
				tag=YUG
			}
			traits={
				
				CoStaff_School_Of_Mass_Combat
			}
		}
	}
	YUG_Koca_Popovic = {
		name=YUG_Koca_Popovic
		portraits={
			army={
				small="GFX_idea_Koca_Popovic"
			}
		}
		advisor={
			slot=Chief_of_Staff
			idea_token=YUG_Koca_Popovic_CoStaff
			allowed={
				tag=YUG
			}
			traits={
				
				CoStaff_School_Of_Mass_Combat
			}
		}
	}
	YUG_Milan_Molovanovic = {
		name=YUG_Milan_Molovanovic
		portraits={
			army={
				small="GFX_idea_Milan_Molovanovic"
			}
		}
		advisor={
			slot=Chief_of_Staff
			idea_token=YUG_Milan_Molovanovic_CoStaff
			allowed={
				tag=YUG
			}
			traits={
				
				CoArmy_Doctrine_Of_Autonomy
			}
		}
	}
	YUG_Milan_Nedic = {
		name=YUG_Milan_Nedic
		portraits={
			army={
				small="GFX_idea_Milan_Nedic"
				large="GFX_M_Milan_Nedic"
			}
		}
		advisor={
			slot=Chief_of_Staff
			idea_token=YUG_Milan_Nedic_CoStaff
			allowed={
				tag=YUG
			}
			traits={
				
				CoArmy_Elastic_Defence_Doctrine
			}
		}
        corps_commander={
			traits = {
				organizer
			}
			skill = 3
			attack_skill = 3
			defense_skill = 2
			planning_skill = 2
			logistics_skill = 3
		}
	}
	YUG_Ljubomir_Maric = {
		name=YUG_Ljubomir_Maric
		portraits={
			army={
				small="GFX_idea_Ljubomir_Maric"
			}
		}
		advisor={
			slot=Chief_of_Staff
			idea_token=YUG_Ljubomir_Maric_CoStaff
			allowed={
				tag=YUG
			}
			traits={
				
				CoArmy_Static_Defence_Doctrine
			}
		}
	}
	YUG_Milutin_Nedic = {
		name=YUG_Milutin_Nedic
		portraits={
			army={
				small="GFX_idea_Milutin_Nedic"
				large="GFX_idea_Milutin_Nedic"
			}
		}
		advisor={
			slot=Chief_of_Staff
			idea_token=YUG_Milutin_Nedic_CoStaff
			allowed={
				tag=YUG
			}
			traits={
				
				CoArmy_Guns_And_Butter_Doctrine
			}
		}
		field_marshal={
			traits = {
				thorough_planner
			}
			skill = 3
			attack_skill = 3
			defense_skill = 2
			planning_skill = 2
			logistics_skill = 3
		}
	}
	YUG_Petar_Kosic = {
		name=YUG_Petar_Kosic
		portraits={
			army={
				small="GFX_idea_Petar_Kosic"
				large="GFX__Portrait_yugoslavia_petar_kosic"
			}
		}
		advisor={
			slot=Chief_of_Staff
			idea_token=YUG_Petar_Kosic_CoStaff
			allowed={
				tag=YUG
			}
			traits={
				
				CoArmy_Doctrine_Of_Autonomy
			}
		}
        corps_commander={
			traits = {
			}
			skill = 2
			attack_skill = 1
			defense_skill = 2
			planning_skill = 2
			logistics_skill = 2
		}
	}
	YUG_Dimitrije_Ljotic = {
		name=YUG_Dimitrije_Ljotic
		portraits={
			civilian={
				large="GFX_P_F_Dimitrije_Ljotic"
			}
		}
		country_leader={
			expire = "1965.1.1"
			ideology = fascism
			traits = {
				POSITION_Prime_Minister
				SUBIDEOLOGY_Fascism
				L_Backroom_Backstabber
			}
		}
	}
	YUG_Milan_Srskic = {
		name=YUG_Milan_Srskic
		portraits={
			civilian={
				large="GFX_P_A_Milan_Srskic"
			}
		}
		country_leader={
			expire = "1937.4.12"
			ideology = monarchism
			traits = {
				POSITION_Prime_Minister
				SUBIDEOLOGY_Monarchism
				L_Die_Hard_Reformer
			}
		}
	}
	YUG_Zivko_Topalovic = {
		name=YUG_Zivko_Topalovic
		portraits={
			civilian={
				large="GFX_P_S_Zivko_Topalovic"
			}
		}
		country_leader={
			expire = "1965.1.1"
			ideology = socialism
			traits = {
				POSITION_President
				SUBIDEOLOGY_Democratic_Socialism
				L_Happy_Amateur
			}
		}
	}
	YUG_Josep_Broz_Tito = {
		name=YUG_Josep_Broz_Tito
		portraits={
			civilian={
				large="GFX_P_C_Josep_Broz_Tito"
			}
		}
		country_leader={
			expire = "1965.1.1"
			ideology = national_communism
			traits = {
				POSITION_President
				SUBIDEOLOGY_National_Communism
				L_Revolutionary_Leader
			}
		}
	}
	YUG_Vladimir_Cukavac = {
		name=YUG_Vladimir_Cukavac
		portraits={
			army={
				large="GFX__Portrait_yugoslavia_vladimir_cukavac"
			}
		}
		corps_commander={
			traits = {
				trickster
			}
			skill = 3
			attack_skill = 2
			defense_skill = 3
			planning_skill = 3
			logistics_skill = 2
		}
	}
	YUG_Ivan_Gosnjak = {
		name=YUG_Ivan_Gosnjak
		portraits={
			army={
				large="GFX__Portrait_yugoslavia_ivan_gosnjak"
			}
		}
		corps_commander={
			traits = {
				urban_assault_specialist
			}
			skill = 3
			attack_skill = 3
			defense_skill = 2
			planning_skill = 2
			logistics_skill = 3
		}
	}
	YUG_Milan_Milovanovic = {
		name=YUG_Milan_Milovanovic
		portraits={
			army={
				large="GFX_M_Milan_Milovanovic"
			}
		}
		corps_commander={
			traits = {
				old_guard
				skilled_staffer
			}
			skill = 2
			attack_skill = 3
			defense_skill = 1
			planning_skill = 1
			logistics_skill = 2
		}
	}
	YUG_Danilo_Kalafatovic = {
		name=YUG_Danilo_Kalafatovic
		portraits={
			army={
				large="GFX__Portrait_yugoslavia_danilo_kalafatovic"
			}
		}
		field_marshal={
			traits = {
			}
			skill = 2
			attack_skill = 2
			defense_skill = 2
			planning_skill = 2
			logistics_skill = 1
		}
	}
	YUG_Marijan_Polic = {
		name=YUG_Marijan_Polic
		portraits={
			army={
				large="GFX__Portrait_yugoslavia_marijan_polic"
			}
		}
		navy_leader={
			traits = {
			}
			skill = 2
			attack_skill=2
			defense_skill=2
			maneuvering_skill=1
			coordination_skill=2
		}
	}
}
