ideas = {

	country = {
		SPA_la_guerra_civil = {
			modifier = {
				war_support_factor = 0.20
				production_speed_buildings_factor = -0.15
				industrial_capacity_factory = -0.15
				production_factory_max_efficiency_factor = -0.15
				research_speed_factor = 0.1
				ai_get_ally_desire_factor = -1000
			}
		}
		SPA_civilwar_army_1 = {
			modifier = {
				army_org_factor = 0.15
				conscription_factor = -0.3
				army_attack_factor = 0.05
				army_defence_factor = 0.1
			}
		}
		SPA_civilwar_army_2 = {
			modifier = {
				army_org_factor = 0.15
				conscription_factor = -0.3
				army_attack_factor = 0.1
				army_defence_factor = 0.1
			}
		}
		SPA_civilwar_army_3 = {
			modifier = {
				army_org_factor = 0.2
				conscription_factor = -0.3
				army_attack_factor = 0.1
				army_defence_factor = 0.1
				planning_speed = 0.20
			}
		}
		SPA_civilwar_church = {
			modifier = {
				political_power_gain = 0.5
				stability_factor = 0.05
				war_support_factor = 0.05
			}
		}	
		SPA_african_army_1 = {
			modifier = {
				army_org_Factor = 0.10
			}
		}
		SPA_african_army_2 = {
			modifier = {
				army_org_Factor = 0.10
				political_power_gain = 0.5
			}
		}
		SPA_african_army_3 = {
			modifier = {
				army_org_Factor = 0.10
				army_attack_factor = 0.05
				conscription_factor = 0.1
			}
		}
		SPA_african_army_4 = {
			modifier = {
				army_org_Factor = 0.10
				army_attack_factor = 0.05
				conscription_factor = 0.1
				political_power_gain = 0.5
			}
		}
		SPA_carlist_leadership = {
			modifier = {
				stability_factor = 0.05
				consumer_goods_factor = -0.05
			}
		}
		SPA_political_militias_1 = {
			modifier = {
				max_dig_in = 1
				conscription = 0.01
				army_morale_factor = 0.1
			}
		}
		SPA_political_militias_2 = {
			modifier = {
				max_dig_in = 1
				conscription = 0.02
				army_morale_factor = 0.1
				army_org_Factor = -0.05
			}
		}
		SPA_military_power_struggles_1 = {
			modifier = {
				stability_factor = -0.05
				war_support_factor = -0.05
				max_command_power = -5
			}
		}
		SPA_military_power_struggles_2 = {
			modifier = {
				war_support_factor = -0.05
			}
		}
		##########################################
		### Postwar
		##########################################
		SPA_civil_war_scars_1 = { #Starting
			modifier = {
				army_org_factor = -0.05
				war_support_factor = -0.20
				industrial_capacity_factory = -0.10
				stability_factor = -0.3
				MONTHLY_POPULATION = -2.0
				political_power_gain = -0.5
				research_speed_factor = -0.1
				ai_get_ally_desire_factor = -1000
			}
		}
		SPA_civil_war_scars_2 = { #Desktop Diplomacy
			modifier = {
				war_support_factor = -0.20
				industrial_capacity_factory = -0.10
				stability_factor = -0.25
				MONTHLY_POPULATION = -2.0
				political_power_gain = -0.5
				research_speed_factor = -0.05
				ai_get_ally_desire_factor = -1000
			}
		}
		SPA_labor_discrimination_idea = { #Labor_Discrimination
			modifier = {
				industrial_capacity_factory = 0.10
				stability_factor = 0.05
			}
		}
		SPA_our_camps_idea = { #Our Camps
			modifier = {
				stability_factor = 0.1
				research_speed_factor = 0.05
			}
		}
		SPA_nazi_specialists_idea = { #Nazi Specialists
			modifier = {
				stability_factor = -0.08
				research_speed_factor = 0.1
				war_support_factor = 0.2
			}
		}
		SPA_christian_family_laws_idea = { #Christian Family Laws
			modifier = {
				stability_factor = 0.05
				MONTHLY_POPULATION = 2.0
			}
		}
		SPA_mass_exile_idea = { #Mass Exile
			modifier = {
				political_power_gain = 0.5
			}
		}
		SPA_white_terror_1 = { #Ley de Responsabilidades Políticas
			modifier = {
				political_power_gain = 0.5
				stability_factor = 0.05
				conscription_factor = -0.5
				war_support_factor = -0.15
			}
		}
		SPA_white_terror_2 = { #Support from the Military
			modifier = {
				political_power_gain = 0.5
				stability_factor = 0.05
				conscription_factor = -0.25
				war_support_factor = -0.1
			}
		}
		SPA_white_terror_3 = { #Support from the Church
			modifier = {
				political_power_gain = 1.0
				stability_factor = 0.1
				conscription_factor = -0.5
				war_support_factor = -0.15
			}
		}
		SPA_white_terror_4 = { #Both
			modifier = {
				political_power_gain = 1.0
				stability_factor = 0.1
				conscription_factor = -0.25
				war_support_factor = -0.1
			}
		}
		SPA_sindicato_vertical = {
			modifier = {
				production_factory_max_efficiency_factor = -0.1
				industry_repair_factor = 0.1
				local_resources_factor = 0.1
			}
		}
		SPA_disorganized_army_1 = { #Starting
			modifier = {
				war_support_factor = -0.1
				army_org_factor = -0.2
				stability_factor = -0.1
			}
			research_bonus = { land_doctrine = -0.1 }
		}
		SPA_disorganized_army_2 = { #Demobilization
			modifier = {
				war_support_factor = -0.1
				army_org_factor = -0.1
				stability_factor = -0.1
			}
			research_bonus = { land_doctrine = -0.05 }
		}
		SPA_disorganized_army_3 = { #Straighten the Army
			modifier = {
				war_support_factor = -0.05
				army_org_factor = -0.1
			}
			research_bonus = { land_doctrine = -0.05 }
		}
		SPA_disorganized_army_4 = { #A Pragmatic Restructuring
			modifier = {
				war_support_factor = -0.1
				army_org_factor = -0.1
				stability_factor = -0.1
			}
			research_bonus = { land_doctrine = 0.05 }
		}
		SPA_disorganized_army_5 = { #Straighten the Army + A Political Force
			modifier = {
				political_power_gain = 0.5
				army_org_factor = -0.1
			}
			research_bonus = { land_doctrine = -0.05 }
		}
		SPA_disorganized_army_6 = { #Straighten the Army + A Political Force + Standardized Military Cycles
			modifier = {
				political_power_gain = 0.5
				army_org_factor = -0.05
				conscription = 0.005
			}
			research_bonus = { land_doctrine = -0.05 }
		}
		SPA_disorganized_army_7 = { #Straighten the Army + A Political Force + Standardized Military Cycles + A Professional Force
			modifier = {
				stability_factor = 0.5
				political_power_gain = 0.5
				army_org_factor = -0.05
				conscription = 0.005
			}
			research_bonus = { land_doctrine = -0.05 }
		}
		SPA_disorganized_army_8 = { #A Pragmatic Restructuring + Standardized Military Cycles
			modifier = {
				war_support_factor = -0.1
				army_org_factor = -0.05
				conscription = 0.005
				stability_factor = -0.1
			}
			research_bonus = { land_doctrine = 0.05 }
		}
		SPA_disorganized_army_9 = { #A Pragmatic Restructuring + An Unbiased Command
			modifier = {
				political_power_gain = -0.2
				max_command_power = 20
				war_support_factor = -0.1
				army_org_factor = -0.05
				stability_factor = -0.1
			}
			research_bonus = { land_doctrine = 0.05 }
		}
		SPA_disorganized_army_10 = { #A Pragmatic Restructuring + Standardized Military Cycles + An Unbiased Command
			modifier = {
				political_power_gain = -0.2
				max_command_power = 20
				conscription = 0.005
				war_support_factor = -0.1
				stability_factor = -0.1
			}
			research_bonus = { land_doctrine = 0.05 }
		}
		SPA_disorganized_army_11 = { #A Pragmatic Restructuring + Standardized Military Cycles + An Unbiased Command + A Professional Force
			modifier = {
				political_power_gain = -0.2
				max_command_power = 20
				conscription = 0.005
				war_support_factor = -0.1
				stability_factor = -0.05
			}
			research_bonus = { land_doctrine = 0.05 }
		}
		SPA_disorganized_army_12 = { #Meet with the Wehrmacht
			modifier = {
				planning_speed = 0.10
				max_planning = 0.10
				war_support_factor = -0.1
				army_org_factor = -0.2
				stability_factor = -0.1
			}
			research_bonus = { land_doctrine = -0.1 }
		}
		SPA_disorganized_army_13 = { #Announce a New Crusade
			modifier = {
				planning_speed = 0.10
				max_planning = 0.10
				army_org_factor = -0.2
				stability_factor = -0.1
			}
			research_bonus = { land_doctrine = -0.1 }
		}
		SPA_disorganized_army_14 = { #Announce a New Crusade + Indoctrination Standards
			modifier = {
				planning_speed = 0.10
				max_planning = 0.10
				political_power_gain = -0.2
				army_morale_factor = 0.1
				army_org_factor = -0.15
				stability_factor = -0.1
			}
			research_bonus = { land_doctrine = -0.1 }
		}
		SPA_disorganized_army_15 = { #Announce a New Crusade + Meet with Total War Theorists
			modifier = {
				planning_speed = 0.10
				max_planning = 0.10
				army_org_factor = -0.2
				stability_factor = -0.1
				conscription = 0.02
			}
		}
		SPA_disorganized_army_16 = { #Announce a New Crusade + Indoctrination Standards + Meet with Total War Theorists
			modifier = {
				planning_speed = 0.10
				max_planning = 0.10
				political_power_gain = -0.2
				army_morale_factor = 0.1
				army_org_factor = -0.15
				stability_factor = -0.1
				conscription = 0.02
			}
		}
		SPA_disorganized_army_17 = { #Iberische-Wall
			modifier = {
				planning_speed = 0.10
				max_planning = 0.10
				political_power_gain = -0.2
				army_morale_factor = 0.1
				army_org_factor = -0.15
				stability_factor = -0.1
				conscription = 0.02
				army_core_defence_factor = 0.1
			}
		}
		SPA_reconstruction = {
			modifier = {
				industry_repair_factor = 0.1
				consumer_goods_factor = -0.05
				industrial_capacity_factory = -0.1
				join_faction_tension = 0.5
			}
		}
		SPA_autarky_1 = { #Auturky
			modifier = {
				consumer_goods_factor = -0.05
			}
		}
		SPA_autarky_2 = { #Mass Agrarianism
			modifier = {
				consumer_goods_factor = -0.05
				production_speed_buildings_factor = 0.1
				research_speed_factor = 0.03
			}
		}
		SPA_autarky_3 = { #Mass Agrarianism + Corporate Principles
			modifier = {
				consumer_goods_factor = -0.05
				production_speed_buildings_factor = 0.1
				production_factory_max_efficiency_factor = 0.05
				research_speed_factor = 0.03
				industrial_capacity_factory = 0.05
			}
		}
		SPA_autarky_4 = { #Mass Agrarianism + Corporate Principles + New Mines in Castille
			modifier = {
				consumer_goods_factor = -0.1
				local_resources_factor = 0.1
				production_factory_max_efficiency_factor = 0.05
				industrial_capacity_factory = 0.05
				production_speed_buildings_factor = 0.1
				research_speed_factor = 0.03
			}
		}				
	}
}